<svg height="31" width="41" xmlns="http://www.w3.org/2000/svg">
    <path
        d="M37.849 31H3.151A3.152 3.152 0 0 1 0 27.848V3.151A3.151 3.151 0 0 1 3.151 0h34.698A3.151 3.151 0 0 1 41 3.151v24.697A3.152 3.152 0 0 1 37.849 31zM39 23V2H2v27h37v-6zM5.419 10.675l1.149.001.862-.001c.575 0 1.15.001 1.725.004.171 0 .345.026.508.073.367.107.557.376.632.742l.795 3.82.004.062c-.121-.247-.229-.502-.363-.741-.17-.305-.385-.57-.596-.838.211.268.426.533.595.838.134.24.243.493.364.741l.273 1.268.041-.099 2.032-5.187c.081-.206.162-.412.24-.619l.084-.061c.805.002 1.61.002 2.416.002l.052.004-.027.076-2.997 6.959c-.235.545-.47 1.089-.702 1.635l-.101.071c-.795-.002-1.59-.001-2.385.002l-.096-.071c-.69-2.475-1.382-4.949-2.073-7.423l-.025-.107c.054.029.1.069.152.099-.053-.03-.099-.071-.152-.099-.331-.159-.655-.328-.991-.474a9.024 9.024 0 0 0-1.473-.481l-.053-.005v-.047l.035-.144h.075zm14.177.003l-1.495 8.752h-2.39l1.494-8.752h2.391zm.326 6.527l.015-.068.159.072c.517.233 1.046.427 1.615.484.498.049.998.087 1.489-.061.189-.057.364-.141.509-.279.275-.263.294-.652.022-.917a2.36 2.36 0 0 0-.496-.361c-.334-.185-.684-.342-1.023-.519a4.122 4.122 0 0 1-.961-.677c-.642-.617-.807-1.354-.547-2.194.181-.584.555-1.025 1.047-1.371.539-.379 1.144-.592 1.788-.699.231-.038.465-.053.698-.08l.041-.013h.704l.266.03a5.797 5.797 0 0 1 1.49.327l.032.017-.321 1.88c-.187-.071-.366-.148-.551-.208a4.173 4.173 0 0 0-1.965-.169 1.253 1.253 0 0 0-.606.252c-.178.142-.293.319-.237.555a.552.552 0 0 0 .142.262c.127.121.268.234.42.321.275.158.559.3.844.438.491.236.96.503 1.342.901.455.474.64 1.039.572 1.693-.103.968-.62 1.653-1.445 2.126-.536.307-1.12.469-1.729.551-.162.021-.326.032-.489.049l-.033.014h-.876l-.258-.031c-.637-.059-1.264-.163-1.867-.386-.115-.042-.115-.044-.095-.162l.304-1.777zm6.751 1.28l2.408-5.445c.249-.563.497-1.128.751-1.69.127-.283.334-.494.636-.583.166-.048.342-.079.514-.082.617-.009 1.235-.003 1.853-.005l.081.067c.204.932.413 1.863.619 2.795l1.21 5.486c.027.121.06.241.089.361v.047c-.719 0-1.439 0-2.158.002l-.075-.075c-.085-.388-.172-.777-.256-1.166l-.091-.075c-.973.001-1.945 0-2.917-.002l-.1.069c-.147.393-.298.783-.445 1.175l-.105.075c-.782-.003-1.564-.002-2.345-.002h-.087l.035-.089.383-.863zm5.263-2.162l-.713-3.268-1.266 3.268h1.979z"
        fill="#4B505C" fill-rule="evenodd" />
</svg>