<svg height="31" width="41" xmlns="http://www.w3.org/2000/svg">
    <path d="M41 27.848A3.152 3.152 0 0 1 37.849 31H3.151A3.15 3.15 0 0 1 0 27.848V3.151A3.15 3.15 0 0 1 3.151 0h34.698A3.151 3.151 0 0 1 41 3.151v24.697zM2 29h37V15H2v14zm0-19h37V2H2v8z" fill="#4B505C"
        fill-rule="evenodd" />
</svg>