<svg 
 xmlns="http://www.w3.org/2000/svg"
 xmlns:xlink="http://www.w3.org/1999/xlink"
 width="33px" height="40px">
<path fill-rule="evenodd"  fill="rgb(246, 0, 127)"
 d="M16.830,39.797 L16.601,39.850 L16.371,39.797 C16.213,39.760 0.597,35.936 0.597,21.902 L0.597,3.981 L0.597,2.986 L0.597,1.990 L13.600,1.990 C14.703,1.990 15.600,1.096 15.600,-0.001 L17.601,-0.001 C17.601,1.096 18.498,1.990 19.601,1.990 L32.605,1.990 L32.605,2.986 L32.605,3.981 L32.605,21.902 C32.605,35.936 16.988,39.760 16.830,39.797 ZM30.604,3.981 L19.601,3.981 C18.401,3.981 17.335,3.441 16.601,2.605 C15.867,3.441 14.801,3.981 13.600,3.981 L2.597,3.981 L2.597,21.902 C2.597,33.504 14.784,37.298 16.605,37.799 C18.516,37.291 30.604,33.614 30.604,21.902 L30.604,3.981 ZM17.601,26.880 L15.600,26.880 L15.600,19.911 L8.599,19.911 L8.599,17.920 L15.600,17.920 L15.600,10.950 L17.601,10.950 L17.601,17.920 L24.603,17.920 L24.603,19.911 L17.601,19.911 L17.601,26.880 Z"/>
</svg>